{"isSucceed":true,"responseKey":null,"status":0,"errors":[],"exception":null,"data":{"items":[{"keyword":"StartWeekOn","category":"System","value":"Monday","dataType":7,"status":2,"description":"Day","createdDateTime":"2019-07-14T11:47:01.823","domain":null,"property":{"dataType":7,"value":"Monday","name":"StartWeekOn"},"isClone":false,"cultures":null,"priority":0,"specificulture":"en-us"},{"keyword":"DateTimeFormat","category":"System","value":"dd-MM-yyyy HH:mm:ss","dataType":7,"status":2,"description":"Date Time Format","createdDateTime":"2019-07-14T11:47:01.787","domain":null,"property":{"dataType":7,"value":"dd-MM-yyyy HH:mm:ss","name":"DateTimeFormat"},"isClone":false,"cultures":null,"priority":0,"specificulture":"en-us"},{"keyword":"ThemeId","category":"Site_Settings","value":"1","dataType":7,"status":2,"description":"Theme Id","createdDateTime":"2019-07-14T11:47:01.75","domain":null,"property":{"dataType":7,"value":"1","name":"ThemeId"},"isClone":false,"cultures":null,"priority":0,"specificulture":"en-us"},{"keyword":"ThemeFolder","category":"Site_Settings","value":"test-asfd-as-ads","dataType":7,"status":2,"description":"Theme Folder","createdDateTime":"2019-07-14T11:47:01.727","domain":null,"property":{"dataType":7,"value":"test-asfd-as-ads","name":"ThemeFolder"},"isClone":false,"cultures":null,"priority":0,"specificulture":"en-us"},{"keyword":"ThemeName","category":"Site","value":"test-asfd-as-ads","dataType":7,"status":2,"description":"Theme Name","createdDateTime":"2019-07-14T11:47:01.693","domain":null,"property":{"dataType":7,"value":"test-asfd-as-ads","name":"ThemeName"},"isClone":false,"cultures":null,"priority":0,"specificulture":"en-us"},{"keyword":"LogoBlack","category":"Site_Common","value":"/css/portal/img/mixcore-logo-black.png","dataType":16,"status":2,"description":"Logo Black","createdDateTime":"2019-07-14T11:47:01.657","domain":null,"property":{"dataType":16,"value":"/css/portal/img/mixcore-logo-black.png","name":"LogoBlack"},"isClone":false,"cultures":null,"priority":0,"specificulture":"en-us"},{"keyword":"LogoWhite","category":"Site_Common","value":"/css/portal/img/mixcore-logo-white.png","dataType":16,"status":2,"description":"Logo White","createdDateTime":"2019-07-14T11:47:01.62","domain":null,"property":{"dataType":16,"value":"/css/portal/img/mixcore-logo-white.png","name":"LogoWhite"},"isClone":false,"cultures":null,"priority":0,"specificulture":"en-us"},{"keyword":"Logo","category":"Site_Common","value":"/css/portal/img/mixcore-logo-green.png","dataType":16,"status":2,"description":"Logo","createdDateTime":"2019-07-14T11:47:01.587","domain":null,"property":{"dataType":16,"value":"/css/portal/img/mixcore-logo-green.png","name":"Logo"},"isClone":false,"cultures":null,"priority":0,"specificulture":"en-us"},{"keyword":"Favicon","category":"Site_Common","value":"/css/portal/img/mixcore-logo-green-16x16.png","dataType":16,"status":2,"description":"Favicon","createdDateTime":"2019-07-14T11:47:01.553","domain":null,"property":{"dataType":16,"value":"/css/portal/img/mixcore-logo-green-16x16.png","name":"Favicon"},"isClone":false,"cultures":null,"priority":0,"specificulture":"en-us"},{"keyword":"Recaptcha_Secret","category":"Social_Google","value":"","dataType":7,"status":2,"description":"Recaptcha Secret","createdDateTime":"2019-07-14T11:47:01.523","domain":null,"property":{"dataType":7,"value":"","name":"Recaptcha_Secret"},"isClone":false,"cultures":null,"priority":0,"specificulture":"en-us"},{"keyword":"Recaptcha_Key","category":"Social_Google","value":"","dataType":7,"status":2,"description":"Recaptcha Key","createdDateTime":"2019-07-14T11:47:01.49","domain":null,"property":{"dataType":7,"value":"","name":"Recaptcha_Key"},"isClone":false,"cultures":null,"priority":0,"specificulture":"en-us"},{"keyword":"Google_Client_Id","category":"Social_Google","value":"","dataType":7,"status":2,"description":"Google Client Id","createdDateTime":"2019-07-14T11:47:01.457","domain":null,"property":{"dataType":7,"value":"","name":"Google_Client_Id"},"isClone":false,"cultures":null,"priority":0,"specificulture":"en-us"},{"keyword":"Google_Analytic_Ids","category":"Social_Google","value":"","dataType":7,"status":2,"description":"Google Analytic Id","createdDateTime":"2019-07-14T11:47:01.423","domain":null,"property":{"dataType":7,"value":"","name":"Google_Analytic_Ids"},"isClone":false,"cultures":null,"priority":0,"specificulture":"en-us"},{"keyword":"Google_Analytic_Key","category":"Social_Google","value":"","dataType":7,"status":2,"description":"Google Analytic Key","createdDateTime":"2019-07-14T11:47:01.39","domain":null,"property":{"dataType":7,"value":"","name":"Google_Analytic_Key"},"isClone":false,"cultures":null,"priority":0,"specificulture":"en-us"},{"keyword":"Facebook_Page_Id","category":"Social_Facebook","value":"","dataType":7,"status":2,"description":"Facebook Page Id","createdDateTime":"2019-07-14T11:47:01.36","domain":null,"property":{"dataType":7,"value":"","name":"Facebook_Page_Id"},"isClone":false,"cultures":null,"priority":0,"specificulture":"en-us"},{"keyword":"FacebookAppId","category":"Social_Facebook","value":"","dataType":7,"status":2,"description":"Facebook App Id","createdDateTime":"2019-07-14T11:47:01.323","domain":null,"property":{"dataType":7,"value":"","name":"FacebookAppId"},"isClone":false,"cultures":null,"priority":0,"specificulture":"en-us"},{"keyword":"Facebook_Token","category":"Social_Facebook","value":"","dataType":9,"status":2,"description":"Facebook Access Token","createdDateTime":"2019-07-14T11:47:01.293","domain":null,"property":{"dataType":9,"value":"","name":"Facebook_Token"},"isClone":false,"cultures":null,"priority":0,"specificulture":"en-us"},{"keyword":"ContactPhone","category":"Site_Common","value":"","dataType":7,"status":2,"description":"Hotline","createdDateTime":"2019-07-14T11:47:01.26","domain":null,"property":{"dataType":7,"value":"","name":"ContactPhone"},"isClone":false,"cultures":null,"priority":0,"specificulture":"en-us"},{"keyword":"ContactEmail","category":"Site_Common","value":"","dataType":10,"status":2,"description":"Email","createdDateTime":"2019-07-14T11:47:01.233","domain":null,"property":{"dataType":10,"value":"","name":"ContactEmail"},"isClone":false,"cultures":null,"priority":0,"specificulture":"en-us"},{"keyword":"ContactAddress","category":"Site_Common","value":"","dataType":7,"status":2,"description":"Address","createdDateTime":"2019-07-14T11:47:01.197","domain":null,"property":{"dataType":7,"value":"","name":"ContactAddress"},"isClone":false,"cultures":null,"priority":0,"specificulture":"en-us"}],"jsonItems":[],"pageIndex":0,"page":1,"pageSize":20,"totalItems":23,"totalPage":2},"lastUpdateConfiguration":null}
